{
	"textures": {
        "particle": "blocks/dirt",
        "bottom": "blocks/dirt",
        "top": "blocks/grass_top",
        "side": "blocks/ctm/grass_side/grass_side",
        "overlay": "blocks/ctm/grass_overlay/grass_side_overlay",
		"short": "blocks/shortgrass",
		"root": "blocks/root"
    },
	"elements": [
        {   "from": [ 0, 0, 0 ],
            "to": [ 16, 16, 16 ],
            "faces": {
                "down":  { "uv": [ 0, 0, 16, 16 ], "texture": "#bottom", "cullface": "down" },
                "up":    { "uv": [ 0, 0, 16, 16 ], "texture": "#top",    "cullface": "up", "tintindex": 0 },
                "north": { "uv": [ 0, 0, 16, 16 ], "texture": "#side",   "cullface": "north" },
                "south": { "uv": [ 0, 0, 16, 16 ], "texture": "#side",   "cullface": "south" },
                "west":  { "uv": [ 0, 0, 16, 16 ], "texture": "#side",   "cullface": "west" },
                "east":  { "uv": [ 0, 0, 16, 16 ], "texture": "#side",   "cullface": "east" }
            }
        },
		{   "from": [ 0, 0, 0 ],
            "to": [ 16, 16, 16 ],
            "faces": {
                "north": { "uv": [ 0, 0, 16, 16 ], "texture": "#overlay", "tintindex": 0, "cullface": "north" },
                "south": { "uv": [ 0, 0, 16, 16 ], "texture": "#overlay", "tintindex": 0, "cullface": "south" },
                "west":  { "uv": [ 0, 0, 16, 16 ], "texture": "#overlay", "tintindex": 0, "cullface": "west" },
                "east":  { "uv": [ 0, 0, 16, 16 ], "texture": "#overlay", "tintindex": 0, "cullface": "east" }
            }
        },
		
		
		{   "from": [ 3, -14, -4 ],
            "to": [ 3, 2, 12 ],
            "rotation": { "origin": [ 3, 8, 4 ], "axis": "y", "angle": -22.5, "rescale": false },
            "shade": false,
            "faces": {
                "west": { "uv": [ 0, 0, 16, 16 ], "texture": "#root", "cullface": "down" },
                "east": { "uv": [ 0, 0, 16, 16 ], "texture": "#root", "cullface": "down" }
            }
        },
        {   "from": [ 3, -14, 3 ],
            "to": [ 19, 2, 3 ],
            "rotation": { "origin": [ 11, 8, 3 ], "axis": "y", "angle": -45, "rescale": false },
            "shade": false,
            "faces": {
                "north": { "uv": [ 0, 0, 16, 16 ], "texture": "#root", "cullface": "down" },
                "south": { "uv": [ 0, 0, 16, 16 ], "texture": "#root", "cullface": "down" }
            }
        },
		{   "from": [ 2, -14, 10 ],
            "to": [ 18, 2, 10 ],
            "rotation": { "origin": [ 10, 8, 10 ], "axis": "y", "angle": -22.5, "rescale": false },
            "shade": false,
            "faces": {
                "north": { "uv": [ 0, 0, 16, 16 ], "texture": "#root", "cullface": "down" },
                "south": { "uv": [ 0, 0, 16, 16 ], "texture": "#root", "cullface": "down" }
            }
        },
        {   "from": [ 8, -14, 5 ],
            "to": [ 8, 2, 21 ],
            "rotation": { "origin": [ 8, 8, 13 ], "axis": "y", "angle": -45, "rescale": false },
            "shade": false,
            "faces": {
                "west": { "uv": [ 0, 0, 16, 16 ], "texture": "#root", "cullface": "down" },
                "east": { "uv": [ 0, 0, 16, 16 ], "texture": "#root", "cullface": "down" }
            }
        }
    ]
}
