{
    "parent": "block/ctm/grass/grass_normal",
	"textures": {
        "side": "blocks/ctm/grass_side/grass_side4",
        "overlay": "blocks/ctm/grass_overlay/grass_side_overlay4",
        "top": "blocks/ctm/grass_top/grass_top"
    }
}
