{
    "textures": {
        "particle": "blocks/dirt",
        "bottom": "blocks/dirt",
        "top": "blocks/ctm/grass_top/grass_top1",
        "side": "blocks/grass_side",
        "overlay": "blocks/grass_side_overlay",
		"stone": "blocks/stone"
    },
	"elements": [
		{   "from": [ 8, 16, 6 ],
            "to": [ 10, 18, 10 ],
			"rotation": { "origin": [ 8, 8, 8 ], "axis": "y", "angle": 45 },
            "faces": {
                "north": { "uv": [ 0, 0, 2, 2 ], "texture": "#stone", "cullface": "up" },
                "south": { "uv": [ 0, 0, 2, 2 ], "texture": "#stone", "cullface": "up" },
                "west":  { "uv": [ 2, 0, 6, 2 ], "texture": "#stone", "cullface": "up" },
                "east":  { "uv": [ 2, 0, 6, 2 ], "texture": "#stone", "cullface": "up" },
				"up":    { "uv": [ 4, 0, 6, 4 ], "texture": "#stone", "cullface": "up" },
				"down":  { "uv": [ 4, 0, 6, 4 ], "texture": "#stone", "cullface": "up" }
            }
        }
    ]
}
