{
    "textures": {
		"particle": "blocks/log_oak",
		"stick_side": "blocks/log_oak",
		"stick_top": "blocks/log_oak_top"
    },
	"elements": [
		{   "from": [ 5, 16, 6 ],
            "to": [ 6, 17, 10 ],
			"rotation": { "origin": [ 8, 8, 8 ], "axis": "y", "angle": -22.5 },
            "faces": {
                "down": { "uv": [ 0, 0, 16, 16 ], "texture": "#stick_side", "cullface": "up" },
                "up": { "uv": [ 0, 0, 16, 16 ], "texture": "#stick_side", "cullface": "up" },
                "north": { "uv": [ 0, 0, 16, 16 ], "texture": "#stick_top", "cullface": "up" },
                "south": { "uv": [ 0, 0, 16, 16 ], "texture": "#stick_top", "cullface": "up" },
                "west": { "uv": [ 0, 0, 16, 16 ], "texture": "#stick_side", "rotation": 90, "cullface": "up" },
                "east": { "uv": [ 0, 0, 16, 16 ], "texture": "#stick_side", "rotation": 90, "cullface": "up" }
            }
        }
    ]
}
