{
    "parent": "block/block",
    "textures": {
        "top": "blocks/door_acacia_upper",
		"top_side": "blocks/door_acacia_upper_side",
		"up": "blocks/door_acacia_top",
		"particle": "blocks/door_acacia_upper"
    },
    "elements": [
        {   "from": [ 0, 0, 0 ],
            "to": [ 3, 16, 16 ],
            "faces": {
                "down":  { "uv": [ 0, 0, 16, 3 ], "texture": "#up", "rotation": 90, "cullface": "down" },
                "up":    { "uv": [ 0, 0, 16, 3 ], "texture": "#up", "rotation": 90, "cullface": "up" },
                "north": { "uv": [  0, 0,  3, 16 ], "texture": "#top_side", "cullface": "north" },
                "south": { "uv": [  0, 0,  3, 16 ], "texture": "#top_side", "cullface": "south" },
                "west":  { "uv": [  16, 0, 0, 16 ], "texture": "#top" },
                "east":  { "uv": [ 0, 0,  16, 16 ], "texture": "#top", "cullface": "east" }
            }
        },
		
		
		{   "from": [ 0, 1, 3 ],
            "to": [ 3, 13, 3 ],
            "faces": {
                "south": { "uv": [  0, 1,  3, 13 ], "texture": "#top_side" }
            }
        },
		{   "from": [ 0, 1, 5 ],
            "to": [ 3, 13, 5 ],
            "faces": {
                "north": { "uv": [  0, 1,  3, 13 ], "texture": "#top_side" }
            }
        },
		{   "from": [ 0, 1, 3 ],
            "to": [ 3, 1, 5 ],
            "faces": {
                "up": { "uv": [ 3, 0, 5, 3 ], "rotation": 90, "texture": "#up" }
            }
        },
		{   "from": [ 0, 13, 3 ],
            "to": [ 3, 13, 5 ],
            "faces": {
                "down": { "uv": [ 3, 3, 5, 0 ], "rotation": 270, "texture": "#up" }
            }
        },
		
		
		{   "from": [ 0, 1, 7 ],
            "to": [ 3, 13, 7 ],
            "faces": {
                "south": { "uv": [  0, 1,  3, 13 ], "texture": "#top_side" }
            }
        },
		{   "from": [ 0, 1, 9 ],
            "to": [ 3, 13, 9 ],
            "faces": {
                "north": { "uv": [  0, 1,  3, 13 ], "texture": "#top_side" }
            }
        },
		{   "from": [ 0, 1, 7 ],
            "to": [ 3, 1, 9 ],
            "faces": {
                "up": { "uv": [ 7, 0, 9, 3 ], "rotation": 90, "texture": "#up" }
            }
        },
		{   "from": [ 0, 13, 7 ],
            "to": [ 3, 13, 9 ],
            "faces": {
                "down": { "uv": [ 7, 3, 9, 0 ], "rotation": 270, "texture": "#up" }
            }
        },
		
		
		{   "from": [ 0, 1, 11 ],
            "to": [ 3, 13, 11 ],
            "faces": {
                "south": { "uv": [  0, 1,  3, 13 ], "texture": "#top_side" }
            }
        },
		{   "from": [ 0, 1, 13 ],
            "to": [ 3, 13, 13 ],
            "faces": {
                "north": { "uv": [  0, 1,  3, 13 ], "texture": "#top_side" }
            }
        },
		{   "from": [ 0, 1, 11 ],
            "to": [ 3, 1, 13 ],
            "faces": {
                "up": { "uv": [ 11, 0, 13, 3 ], "rotation": 90, "texture": "#up" }
            }
        },
		{   "from": [ 0, 13, 11 ],
            "to": [ 3, 13, 13 ],
            "faces": {
                "down": { "uv": [ 11, 3, 13, 0 ], "rotation": 270, "texture": "#up" }
            }
        }
    ]
}
