{
    "parent": "block/sapling",
	"textures": {
        "stem": "blocks/sapling_birch_stem",
		"particle": "blocks/sapling_birch",
		"leaves_top": "blocks/sapling_birch_leaves_top",
		"leaves_middle": "blocks/sapling_birch_leaves_middle"
    },
    "elements": [
		{   
			"__comment": "Stem",
			"from": [ 0.8, 0, 8 ],
            "to": [ 15.2, 16, 8 ],
            "rotation": { "origin": [ 8, 8, 8 ], "axis": "y", "angle": 45, "rescale": true },
            "shade": false,
            "faces": {
                "north": { "uv": [ 0, 0, 16, 16 ], "texture": "#stem" },
                "south": { "uv": [ 0, 0, 16, 16 ], "texture": "#stem" }
            }
        },
        {   
			"__comment": "Stem",
			"from": [ 8, 0, 0.8 ],
            "to": [ 8, 16, 15.2 ],
            "rotation": { "origin": [ 8, 8, 8 ], "axis": "y", "angle": 45, "rescale": true },
            "shade": false,
            "faces": {
                "west": { "uv": [ 0, 0, 16, 16 ], "texture": "#stem" },
                "east": { "uv": [ 0, 0, 16, 16 ], "texture": "#stem" }
            }
        },
		
		
		{   
			"from": [ 4, 15, 5 ],
            "to": [ 10, 15, 11 ],
            "rotation": { "origin": [ 8, 15, 8 ], "axis": "z", "angle": 22.5, "rescale": false },
            "shade": true,
            "faces": {
                "up": { "uv": [ 4, 0, 12, 7 ], "texture": "#leaves_top", "rotation": 90 },
                "down": { "uv": [ 4, 0, 12, 7 ], "texture": "#leaves_top", "rotation": 90 }
            }
        },
		{   
			"from": [ 4, 9, 4 ],
            "to": [ 4, 16, 12 ],
            "rotation": { "origin": [ 4, 9, 8 ], "axis": "z", "angle": -22.5, "rescale": false },
            "shade": true,
            "faces": {
                "west": { "uv": [ 4, 0, 12, 7 ], "texture": "#leaves_top" },
                "east": { "uv": [ 4, 0, 12, 7 ], "texture": "#leaves_top" }
            }
        },
		{   
			"from": [ 5, 3, 4 ],
            "to": [ 5, 13, 12 ],
            "shade": true,
            "faces": {
                "west": { "uv": [ 4, 3, 12, 13 ], "texture": "#leaves_middle" },
                "east": { "uv": [ 4, 3, 12, 13 ], "texture": "#leaves_middle" }
            }
        },
		
		
		{   
			"from": [ 6, 15, 5 ],
            "to": [ 12, 15, 11 ],
            "rotation": { "origin": [ 8, 15, 8 ], "axis": "z", "angle": -22.5, "rescale": false },
            "shade": true,
            "faces": {
                "up": { "uv": [ 4, 0, 12, 7 ], "texture": "#leaves_top", "rotation": 270 },
                "down": { "uv": [ 4, 0, 12, 7 ], "texture": "#leaves_top", "rotation": 270 }
            }
        },
		{   
			"from": [ 12, 9, 4 ],
            "to": [ 12, 16, 12 ],
            "rotation": { "origin": [ 12, 9, 8 ], "axis": "z", "angle": 22.5, "rescale": false },
            "shade": true,
            "faces": {
                "west": { "uv": [ 4, 0, 12, 7 ], "texture": "#leaves_top" },
                "east": { "uv": [ 4, 0, 12, 7 ], "texture": "#leaves_top" }
            }
        },
		{   
			"from": [ 11, 3, 4 ],
            "to": [ 11, 13, 12 ],
            "shade": true,
            "faces": {
                "west": { "uv": [ 4, 3, 12, 13 ], "texture": "#leaves_middle" },
                "east": { "uv": [ 4, 3, 12, 13 ], "texture": "#leaves_middle" }
            }
        },
		
		
		{   
			"from": [ 5, 15, 4 ],
            "to": [ 11, 15, 10 ],
            "rotation": { "origin": [ 8, 15, 8 ], "axis": "x", "angle": -22.5, "rescale": false },
            "shade": true,
            "faces": {
                "up": { "uv": [ 4, 0, 12, 7 ], "texture": "#leaves_top", "rotation": 180 },
                "down": { "uv": [ 4, 0, 12, 7 ], "texture": "#leaves_top", "rotation": 180 }
            }
        },
		{   
			"from": [ 4, 9, 4 ],
            "to": [ 12, 16, 4 ],
            "rotation": { "origin": [ 8, 9, 4 ], "axis": "x", "angle": 22.5, "rescale": false },
            "shade": true,
            "faces": {
                "north": { "uv": [ 4, 0, 12, 7 ], "texture": "#leaves_top" },
                "south": { "uv": [ 4, 0, 12, 7 ], "texture": "#leaves_top" }
            }
        },
		{   
			"from": [ 4, 3, 5 ],
            "to": [ 12, 13, 5 ],
            "shade": true,
            "faces": {
                "north": { "uv": [ 4, 3, 12, 13 ], "texture": "#leaves_middle" },
                "south": { "uv": [ 4, 3, 12, 13 ], "texture": "#leaves_middle" }
            }
        },
		
		
		{   
			"from": [ 5, 15, 6 ],
            "to": [ 11, 15, 12 ],
            "rotation": { "origin": [ 8, 15, 8 ], "axis": "x", "angle": 22.5, "rescale": false },
            "shade": true,
            "faces": {
                "up": { "uv": [ 4, 0, 12, 7 ], "texture": "#leaves_top" },
                "down": { "uv": [ 4, 0, 12, 7 ], "texture": "#leaves_top" }
            }
        },
		{   
			"from": [ 4, 9, 12 ],
            "to": [ 12, 16, 12 ],
            "rotation": { "origin": [ 8, 9, 12 ], "axis": "x", "angle": -22.5, "rescale": false },
            "shade": true,
            "faces": {
                "north": { "uv": [ 4, 0, 12, 7 ], "texture": "#leaves_top" },
                "south": { "uv": [ 4, 0, 12, 7 ], "texture": "#leaves_top" }
            }
        },
		{   
			"from": [ 4, 3, 11 ],
            "to": [ 12, 13, 11 ],
            "shade": true,
            "faces": {
                "north": { "uv": [ 4, 3, 12, 13 ], "texture": "#leaves_middle" },
                "south": { "uv": [ 4, 3, 12, 13 ], "texture": "#leaves_middle" }
            }
        }
    ]
}
