{
    "parent": "block/door_top",
    "textures": {
        "bottom": "blocks/door_birch_lower",
        "top": "blocks/door_birch_upper",
		"top_side": "blocks/door_birch_upper_side",
		"up": "blocks/door_birch_top"
    }
}
