{
    "parent": "block/door_bottom",
    "textures": {
        "bottom": "blocks/door_birch_lower",
        "top": "blocks/door_birch_upper",
		"bottom_side": "blocks/door_birch_lower_side",
		"up": "blocks/door_birch_top"
    }
}
