{
    "textures": {
        "particle": "blocks/brewing_stand",
        "base": "blocks/brewing_stand_base",
        "stand": "blocks/brewing_stand",
		"base_side": "blocks/cobblestone",
		"base_bottom": "blocks/cobblestone",
		"rod": "blocks/brewing_stand_rod"
    },
    "elements": [
        {   "from": [ 7, 0, 7 ],
            "to": [ 9, 12, 9 ],
			"shade": false,
            "faces": {
                "down":  { "uv": [ 7, 7, 9,  9 ], "texture": "#rod" },
                "up":    { "uv": [ 7, 7, 9,  9 ], "texture": "#rod" },
                "north": { "texture": "#rod" },
                "south": { "texture": "#rod" },
                "west":  { "texture": "#rod" },
                "east":  { "texture": "#rod" }
            }
        },
        {   "from": [ 9, 0, 5 ],
            "to": [ 15, 2, 11 ],
            "faces": {
                "down":  { "uv": [ 9,  5, 15, 11 ], "texture": "#base_bottom" },
                "up":    { "uv": [ 9,  5, 15, 11 ], "texture": "#base" },
                "north": { "uv": [ 9, 14, 15, 16 ], "texture": "#base_side" },
                "south": { "uv": [ 9, 14, 15, 16 ], "texture": "#base_side" },
                "west":  { "uv": [ 5, 14, 11, 16 ], "texture": "#base_side" },
                "east":  { "uv": [ 5, 14, 11, 16 ], "texture": "#base_side" }
            }
        },
        {   "from": [ 2, 0, 1 ],
            "to": [ 8, 2, 7 ],
            "faces": {
                "down":  { "uv": [ 2,  1, 8,  7 ], "texture": "#base_bottom" },
                "up":    { "uv": [ 2,  1, 8,  7 ], "texture": "#base" },
                "north": { "uv": [ 2, 14, 8, 16 ], "texture": "#base_side" },
                "south": { "uv": [ 2, 14, 8, 16 ], "texture": "#base_side" },
                "west":  { "uv": [ 1, 14, 7, 16 ], "texture": "#base_side" },
                "east":  { "uv": [ 1, 14, 7, 16 ], "texture": "#base_side" }
            }
        },
        {   "from": [ 2, 0, 9 ],
            "to": [ 8, 2, 15 ],
            "faces": {
                "down":  { "uv": [ 2,  9,  8, 15 ], "texture": "#base_bottom" },
                "up":    { "uv": [ 2,  9,  8, 15 ], "texture": "#base" },
                "north": { "uv": [ 2, 14,  8, 16 ], "texture": "#base_side" },
                "south": { "uv": [ 2, 14,  8, 16 ], "texture": "#base_side" },
                "west":  { "uv": [ 9, 14, 15, 16 ], "texture": "#base_side" },
                "east":  { "uv": [ 9, 14, 15, 16 ], "texture": "#base_side" }
            }
        },
        {   "from": [ 8, 0, 8 ],
            "to": [ 16, 16, 8 ],
            "faces": {
                "north": { "uv": [ 0, 0, 8, 16 ], "texture": "#stand" },
                "south": { "uv": [ 8, 0, 0, 16 ], "texture": "#stand" }
            }
        },
        {   "from": [ 13, 2, 6 ],
            "to": [ 13, 10.5, 10 ],
			"shade": false,
            "faces": {
                "west": { "uv": [ 1, 5.5, 5, 14 ], "texture": "#stand" },
                "east": { "uv": [ 5, 5.5, 1, 14 ], "texture": "#stand" }
            }
        },
        {   "from": [ 0, 0, 8 ],
            "to": [ 8, 16, 8 ],
            "rotation": {
                "origin": [ 8, 8, 8 ],
                "axis": "y",
                "angle": 45,
                "rescale": true
            },
            "faces": {
                "north": { "uv": [ 8, 0, 0, 16 ], "texture": "#stand" },
                "south": { "uv": [ 0, 0, 8, 16 ], "texture": "#stand" }
            }
        },
        {   "from": [ 0, 0, 8 ],
            "to": [ 8, 16, 8 ],
            "rotation": {
                "origin": [ 8, 8, 8 ],
                "axis": "y",
                "angle": -45,
                "rescale": true
            },
            "faces": {
                "north": { "uv": [ 8, 0, 0, 16 ], "texture": "#stand" },
                "south": { "uv": [ 0, 0, 8, 16 ], "texture": "#stand" }
            }
        },
        {   "from": [ 3, 2, 6 ],
            "to": [ 3, 10.5, 10 ],
			"shade": false,
            "rotation": {
                "origin": [ 8, 8, 8 ],
                "axis": "y",
                "angle": -45,
                "rescale": true
            },
            "faces": {
                "west": { "uv": [ 5, 5.5, 1, 14 ], "texture": "#stand" },
                "east": { "uv": [ 1, 5.5, 5, 14 ], "texture": "#stand" }
            }
        },
        {   "from": [ 3, 2, 6 ],
            "to": [ 3, 10.5, 10 ],
			"shade": false,
            "rotation": {
                "origin": [ 8, 8, 8 ],
                "axis": "y",
                "angle": 45,
                "rescale": true
            },
            "faces": {
                "west": { "uv": [ 5, 5.5, 1, 14 ], "texture": "#stand" },
                "east": { "uv": [ 1, 5.5, 5, 14 ], "texture": "#stand" }
            }
        }
    ]
}
