{
    "textures": {
        "all": "blocks/brick",
		"top": "blocks/chimney",
		"chimney_side": "blocks/stone_slab_top",
		"inside": "blocks/chimney_inside",
		"particle": "blocks/brick"
    },
	"elements": [
        {   "from": [ 0, 0, 0 ],
            "to": [ 16, 4, 16 ],
            "faces": {
                "down":  { "uv": [ 0, 0, 16, 16 ], "texture": "#all", "cullface": "down" },
                "up":    { "uv": [ 0, 0, 16, 16 ], "texture": "#top", "cullface": "up" },
                "north": { "uv": [ 0, 12, 16, 16 ], "texture": "#all", "cullface": "north" },
                "south": { "uv": [ 0, 12, 16, 16 ], "texture": "#all", "cullface": "south" },
                "west":  { "uv": [ 0, 12, 16, 16 ], "texture": "#all", "cullface": "west" },
                "east":  { "uv": [ 0, 12, 16, 16 ], "texture": "#all", "cullface": "east" }
            }
        },
		{   "from": [ 0, 4, 0 ],
            "to": [ 3, 16, 16 ],
            "faces": {
                "down":  { "uv": [ 0, 0, 3, 16 ], "texture": "#all", "cullface": "down" },
                "up":    { "uv": [ 0, 0, 3, 16 ], "texture": "#top", "cullface": "up" },
                "north": { "uv": [ 13, 0, 16, 12 ], "texture": "#all", "cullface": "north" },
                "south": { "uv": [ 0, 0, 3, 12 ], "texture": "#all", "cullface": "south" },
                "west":  { "uv": [ 0, 0, 16, 12 ], "texture": "#all", "cullface": "west" },
                "east":  { "uv": [ 0, 0, 16, 12 ], "texture": "#inside", "cullface": "up" }
            }
        },
		{   "from": [ 13, 4, 0 ],
            "to": [ 16, 16, 16 ],
            "faces": {
                "down":  { "uv": [ 13, 0, 16, 16 ], "texture": "#all", "cullface": "down" },
                "up":    { "uv": [ 13, 0, 16, 16 ], "texture": "#top", "cullface": "up" },
                "north": { "uv": [ 0, 0, 3, 12 ], "texture": "#all", "cullface": "north" },
                "south": { "uv": [ 13, 0, 16, 12 ], "texture": "#all", "cullface": "south" },
                "west":  { "uv": [ 0, 0, 16, 12 ], "texture": "#inside", "cullface": "up" },
                "east":  { "uv": [ 0, 0, 16, 12 ], "texture": "#all", "cullface": "east" }
            }
        },
		{   "from": [ 3, 4, 0 ],
            "to": [ 13, 16, 3 ],
            "faces": {
                "down":  { "uv": [ 3, 13, 13, 16 ], "texture": "#all", "cullface": "down" },
                "up":    { "uv": [ 3, 0, 13, 3 ], "texture": "#top", "cullface": "up" },
                "north": { "uv": [ 3, 0, 13, 12 ], "texture": "#all", "cullface": "north" },
                "south": { "uv": [ 3, 0, 13, 12 ], "texture": "#inside", "cullface": "up" }
            }
        },
		{   "from": [ 3, 4, 13 ],
            "to": [ 13, 16, 16 ],
            "faces": {
                "down":  { "uv": [ 3, 0, 13, 3 ], "texture": "#all", "cullface": "down" },
                "up":    { "uv": [ 3, 13, 13, 16 ], "texture": "#top", "cullface": "up" },
                "north": { "uv": [ 3, 0, 13, 12 ], "texture": "#inside", "cullface": "up" },
                "south": { "uv": [ 3, 0, 13, 12 ], "texture": "#all", "cullface": "south" }
            }
        },
		{   "from": [ 2, 16, 2 ],
            "to": [ 3, 17, 14 ],
            "faces": {
                "up":    { "uv": [ 2, 2, 3, 14 ], "texture": "#top", "cullface": "up" },
                "north": { "uv": [ 13, 2, 14, 3 ], "texture": "#top", "cullface": "up" },
                "south": { "uv": [ 2, 2, 3, 3 ], "texture": "#top", "cullface": "up" },
                "west":  { "uv": [ 2, 2, 3, 14 ], "texture": "#top", "rotation": 90, "cullface": "up" },
                "east":  { "uv": [ 2, 2, 3, 14 ], "texture": "#top", "rotation": 270, "cullface": "up" }
            }
        },
		{   "from": [ 13, 16, 2 ],
            "to": [ 14, 17, 14 ],
            "faces": {
                "up":    { "uv": [ 13, 2, 14, 14 ], "texture": "#top", "cullface": "up" },
                "north": { "uv": [ 2, 2, 3, 3 ], "texture": "#top", "cullface": "up" },
                "south": { "uv": [ 13, 2, 14, 3 ], "texture": "#top", "cullface": "up" },
                "west":  { "uv": [ 13, 2, 14, 14 ], "texture": "#top", "rotation": 90, "cullface": "up" },
                "east":  { "uv": [ 2, 2, 3, 14 ], "texture": "#top", "rotation": 90, "cullface": "up" }
            }
        },
		{   "from": [ 3, 16, 2 ],
            "to": [ 13, 17, 3 ],
            "faces": {
                "up":    { "uv": [ 3, 2, 13, 3 ], "texture": "#top", "cullface": "up" },
                "north": { "uv": [ 3, 2, 13, 3 ], "texture": "#top", "cullface": "up" },
                "south": { "uv": [ 3, 2, 13, 3 ], "texture": "#top", "rotation": 180, "cullface": "up" }
            }
        },
		{   "from": [ 3, 16, 13 ],
            "to": [ 13, 17, 14 ],
            "faces": {
                "up":    { "uv": [ 3, 13, 13, 14 ], "texture": "#top", "cullface": "up" },
                "north": { "uv": [ 3, 13, 13, 14 ], "texture": "#top", "cullface": "up" },
                "south": { "uv": [ 3, 2, 13, 3 ], "texture": "#top", "cullface": "up" }
            }
        }
	]
}
