{
    "textures": {
        "down": "blocks/command_block_bottom",
        "up": "blocks/command_block_top",
        "north": "blocks/command_block",
		"south": "blocks/command_block",
		"mech": "blocks/command_block_mech_on"
    },
	"elements": [
        {   "from": [ 1, 0, 0 ],
            "to": [ 15, 16, 16 ],
            "faces": {
                "down":  { "uv": [ 1, 0, 15, 16 ], "texture": "#down", "cullface": "down" },
                "up":    { "uv": [ 1, 0, 15, 16 ], "texture": "#up", "cullface": "up" },
                "north": { "uv": [ 1, 0, 15, 16 ], "texture": "#north", "cullface": "north" },
                "south": { "uv": [ 1, 0, 15, 16 ], "texture": "#south", "cullface": "south" }
            }
        },
		{   "from": [ 0, 0, 0 ],
            "to": [ 1, 16, 1 ],
            "faces": {
                "down":  { "uv": [ 0, 15, 1, 16 ], "texture": "#down", "cullface": "down" },
                "up":    { "uv": [ 0, 0, 1, 1 ], "texture": "#up", "cullface": "up" },
                "north": { "uv": [ 15, 0, 16, 16 ], "texture": "#north", "cullface": "north" },
                "south": { "uv": [ 0, 0, 1, 16 ], "texture": "#south" },
				"west": { "uv": [ 0, 0, 1, 16 ], "texture": "#mech", "cullface": "west" }
            }
        },
		{   "from": [ 0, 15, 1 ],
            "to": [ 1, 16, 15 ],
            "faces": {
                "down":  { "uv": [ 0, 1, 1, 15 ], "texture": "#up" },
                "up":    { "uv": [ 0, 1, 1, 15 ], "texture": "#up", "cullface": "up" },
				"west": { "uv": [ 1, 0, 15, 1 ], "texture": "#mech", "cullface": "west" }
            }
        },
		{   "from": [ 0, 0, 15 ],
            "to": [ 1, 16, 16 ],
            "faces": {
                "down":  { "uv": [ 0, 0, 1, 1 ], "texture": "#down", "cullface": "down" },
                "up":    { "uv": [ 0, 15, 1, 16 ], "texture": "#up", "cullface": "up" },
                "north": { "uv": [ 15, 0, 16, 16 ], "texture": "#north" },
                "south": { "uv": [ 0, 0, 1, 16 ], "texture": "#south", "cullface": "south" },
				"west": { "uv": [ 15, 0, 16, 16 ], "texture": "#mech", "cullface": "west" }
            }
        },
		{   "from": [ 0, 0, 1 ],
            "to": [ 1, 1, 15 ],
            "faces": {
                "down":  { "uv": [ 0, 1, 1, 15 ], "texture": "#down", "cullface": "down" },
                "up":    { "uv": [ 0, 1, 1, 15 ], "texture": "#up" },
				"west": { "uv": [ 1, 15, 15, 16 ], "texture": "#mech", "cullface": "west" }
            }
        },
		{   "from": [ 0.5, 1, 1 ],
            "to": [ 0.5, 15, 15 ],
            "faces": {
				"west": { "uv": [ 1, 1, 15, 15 ], "texture": "#mech", "cullface": "west" }
            }
        }
    ]
}
