{
    "parent": "block/door_bottom_rh",
    "textures": {
        "bottom": "blocks/door_dark_oak_lower",
        "top": "blocks/door_dark_oak_upper",
		"bottom_side": "blocks/door_dark_oak_lower_side",
		"up": "blocks/door_dark_oak_top"
    }
}
