{
    "parent": "block/block",
    "textures": {
        "particle": "#top"
    },
    "elements": [
        {   "from": [ 0, 0, 0 ],
            "to": [ 3, 16, 16 ],
            "faces": {
                "down":  { "uv": [ 0, 0, 16, 3 ], "texture": "#up", "rotation": 90, "cullface": "down" },
                "up":    { "uv": [ 0, 0, 16, 3 ], "texture": "#up", "rotation": 90, "cullface": "up" },
                "north": { "uv": [  0, 0,  3, 16 ], "texture": "#top_side", "cullface": "north" },
                "south": { "uv": [  0, 0,  3, 16 ], "texture": "#top_side", "cullface": "south" },
                "west":  { "uv": [ 16, 0,  0, 16 ], "texture": "#top", "cullface": "west" },
                "east":  { "uv": [  0, 0, 16, 16 ], "texture": "#top" }
            }
        }
    ]
}
