{
    "ambientocclusion": true,
    "textures": {
        "particle": "blocks/hopper_outside",
        "top": "blocks/hopper_top",
        "side": "blocks/hopper_outside",
        "inside": "blocks/hopper_inside"
    },
    "elements": [
        {   "from": [ 6, 4, 0 ],
            "to": [ 10, 8, 4 ],
            "faces": {
                "down":  { "uv": [ 6, 0, 10,  4 ], "texture": "#side" },
                "up":    { "uv": [ 6, 0, 10,  4 ], "texture": "#side" },
                "north": { "uv": [ 6, 8, 10, 12 ], "texture": "#side" },
                "south": { "uv": [ 6, 8, 10, 12 ], "texture": "#side" },
                "west":  { "uv": [ 0, 8,  4, 12 ], "texture": "#side" },
                "east":  { "uv": [ 0, 8,  4, 12 ], "texture": "#side" }
            }
        }
    ]
}
