{
    "parent": "block/door_bottom_rh",
    "textures": {
        "bottom": "blocks/door_iron_lower",
        "top": "blocks/door_iron_upper",
		"bottom_side": "blocks/door_iron_lower_side",
		"up": "blocks/door_iron_top"
    }
}
