{
    "ambientocclusion": false,
    "textures": {
        "particle": "blocks/iron_bars",
        "bars": "blocks/iron_bars",
        "edge": "blocks/iron_bars"
    },
    "elements": [
        {   "from": [ 8, 0, 8 ],
            "to": [ 8, 16, 9 ],
            "faces": {
                "west": { "uv": [ 8, 0, 7, 16 ], "texture": "#bars" },
                "east": { "uv": [ 7, 0, 8, 16 ], "texture": "#bars" }
            }
        }
    ]
}
