{
    "parent": "block/door_bottom_rh",
    "textures": {
        "bottom": "blocks/door_jungle_lower",
        "top": "blocks/door_jungle_upper",
		"bottom_side": "blocks/door_jungle_lower_side",
		"up": "blocks/door_jungle_top"
    }
}
