{
    "ambientocclusion": true,
	"parent": "block/orientable",
    "textures": {
        "top": "blocks/furnace_top",
        "front": "blocks/furnace_front_on",
        "side": "blocks/furnace_side"
    }
}
