{
    "parent": "block/stairs",
    "textures": {
        "bottom": "blocks/nether_brick",
        "top": "blocks/nether_brick",
        "side": "blocks/nether_brick"
    },
	"elements": [
		{   "__comment": "Layer1 Brick1",
			"from": [ 0, 0, 0 ],
            "to": [ 16, 5.375, 16 ],
            "faces": {
                "down":  { "texture": "#bottom", "cullface": "down" },
                "up":    { "texture": "#top" },
                "north": { "texture": "#side", "cullface": "north" },
                "south": { "texture": "#side", "cullface": "south" },
                "west":  { "texture": "#side", "cullface": "west" },
                "east":  { "texture": "#side", "cullface": "east" }
            }
        },
		
		{   "__comment": "Layer2 Brick1",
			"from": [ 12.5, 5.375, 5.375 ],
            "to": [ 16, 10.625, 16 ],
            "faces": {
                "up":    { "texture": "#top" },
                "north": { "texture": "#side" },
                "west":  { "texture": "#side" },
                "east":  { "texture": "#side", "cullface": "east" }
            }
        },
		{   "__comment": "Layer2 Brick2",
			"from": [ 4.375, 5.375, 3.5 ],
            "to": [ 12.5, 10.625, 10.625 ],
            "faces": {
                "up":    { "texture": "#top" },
                "north": { "texture": "#side" },
                "south": { "texture": "#side" },
                "west":  { "texture": "#side" },
                "east":  { "texture": "#side" }
            }
        },
		{   "__comment": "Layer2 Brick3",
			"from": [ 5.375, 5.375, 10.625 ],
            "to": [ 16, 10.625, 16 ],
            "faces": {
                "up":    { "texture": "#top" },
                "south": { "texture": "#side", "cullface": "south" },
                "west":  { "texture": "#side" },
                "east":  { "texture": "#side", "cullface": "east" }
            }
        },
		
		{   "__comment": "Layer3 Brick1",
			"from": [ 10.625, 10.625, 10.625 ],
            "to": [ 16, 16, 16 ],
            "faces": {
                "up":    { "texture": "#top", "cullface": "up" },
                "north": { "texture": "#side" },
                "south": { "texture": "#side", "cullface": "south" },
                "west":  { "texture": "#side" },
                "east":  { "texture": "#side", "cullface": "east" }
            }
        }
	]
}
