{
    "ambientocclusion": true,
	"textures": {
        "particle": "#side"
    },
    "elements": [
        {   "__comment": "Main Plate",
			"from": [ 8, 0, 0 ],
            "to": [ 16, 2.125, 16 ],
            "faces": {
                "down":  { "uv": [ 8, 0, 16, 16 ], "texture": "#bottom", "cullface": "down" },
                "up":  { "uv": [ 8, 0, 16, 16 ], "texture": "#top" },
                "north": { "uv": [ 0, 13.875, 8, 16 ], "texture": "#side", "cullface": "north" },
                "south": { "uv": [ 8, 13.875, 16, 16 ], "texture": "#side", "cullface": "south" },
                "east":  { "uv": [ 0, 13.875, 16, 16 ], "texture": "#side", "cullface": "east" }
            }
        },
		{   "__comment": "Main Plate2",
			"from": [ 8, 2.125, 16 ],
            "to": [ 16, 6.75, 16 ],
            "faces": {
                "south": { "uv": [ 8, 9.25, 16, 13.875 ], "texture": "#side", "cullface": "south" }
            }
        },
		
		
		
		{  "__comment": "Layer1 Plate1",
			"from": [ 0, 0, 0 ],
            "to": [ 8, 2.125, 16 ],
            "faces": {
                "down":  { "uv": [ 0, 0, 8, 16 ], "texture": "#bottom", "cullface": "down" },
                "up":    { "uv": [ 0, 0, 8, 16 ], "texture": "#top" },
                "north": { "uv": [ 8, 13.875, 16, 16 ], "texture": "#side", "cullface": "north" },
                "south": { "uv": [ 0, 13.875, 8, 16 ], "texture": "#side", "cullface": "south" },
                "west":  { "uv": [ 0, 13.875, 16, 16 ], "texture": "#side", "cullface": "west" }
            }
        },
		
		{  "__comment": "Layer2 Plate1",
			"from": [ 9.875, 2.125, 0.375 ],
            "to": [ 16, 4.625, 8 ],
            "faces": {
                "up":    { "uv": [ 9.875, 0.375, 16, 8 ], "texture": "#top" },
                "west": { "uv": [ 0.375, 11.375, 8, 13.875 ], "texture": "#side" },
                "east": { "uv": [ 8, 11.375, 8, 13.875 ], "texture": "#side", "cullface": "east" },
                "north":  { "uv": [ 0, 11.375, 6.125, 13.875 ], "texture": "#side" }
            }
        },
		{  "__comment": "Layer2 Plate2",
			"from": [ 9.875, 2.125, 0 ],
            "to": [ 14, 4.625, 0.375 ],
            "faces": {
                "up":    { "uv": [ 9.875, 0, 14, 0.375 ], "texture": "#top" },
                "west": { "uv": [ 0, 11.375, 0.375, 13.875 ], "texture": "#side" },
                "east": { "uv": [ 15.625, 11.375, 16, 13.875 ], "texture": "#side" },
                "north":  { "uv": [ 2, 11.375, 6.125, 13.875 ], "texture": "#side", "cullface": "north" }
            }
        },
		{  "__comment": "Layer2 Plate3",
			"from": [ 5.5, 2.125, 2 ],
            "to": [ 9.875, 4.625, 8 ],
            "faces": {
                "up":    { "uv": [ 5.5, 2, 9.875, 8 ], "texture": "#top" },
                "north":  { "uv": [ 6.125, 11.375, 10.5, 13.875 ], "texture": "#side" }
            }
        },
		{  "__comment": "Layer2 Plate4",
			"from": [ 0.375, 2.125, 2 ],
            "to": [ 5.5, 4.625, 6.125 ],
            "faces": {
                "up":    { "uv": [ 0.375, 2, 5.5, 6.125 ], "texture": "#top" },
                "north": { "uv": [ 10.5, 11.375, 15.625, 13.875 ], "texture": "#side", "cullface": "north" },
                "south": { "uv": [ 0.375, 11.375, 5.5, 13.875 ], "texture": "#side" },
                "west":  { "uv": [ 2, 11.375, 6.125, 13.875 ], "texture": "#side" }
            }
        },
		{  "__comment": "Layer2 Plate5",
			"from": [ 0, 2.125, 2 ],
            "to": [ 0.375, 4.625, 6.125 ],
            "faces": {
                "up":    { "uv": [ 0, 2, 0.375, 6.125 ], "texture": "#top" },
                "north": { "uv": [ 15.625, 11.375, 16, 13.875 ], "texture": "#side" },
                "south": { "uv": [ 0, 11.375, 0.375, 13.875 ], "texture": "#side" },
                "west":  { "uv": [ 2, 11.375, 6.125, 13.875 ], "texture": "#side", "cullface": "west" }
            }
        },
		{  "__comment": "Layer2 Plate6",
			"from": [ 2, 2.125, 6.125 ],
            "to": [ 8, 4.625, 10.5 ],
            "faces": {
                "up":    { "uv": [ 2, 6.125, 8, 9.875 ], "texture": "#top" },
                "west":  { "uv": [ 6.125, 11.375, 10.5, 13.875 ], "texture": "#side", "cullface": "west" }
            }
        },
		{  "__comment": "Layer2 Plate7",
			"from": [ 0.375, 2.125, 10.5 ],
            "to": [ 8, 4.625, 16 ],
            "faces": {
                "up":    { "uv": [ 0.375, 10.5, 8, 16 ], "texture": "#top" },
                "north": { "uv": [ 8, 11.375, 15.625, 13.875 ], "texture": "#side" },
                "south": { "uv": [ 0.375, 11.375, 8, 13.875 ], "texture": "#side", "cullface": "south" },
                "west":  { "uv": [ 10.5, 11.375, 16, 13.875 ], "texture": "#side" }
            }
        },
		
		{  "__comment": "Layer3 Plate1",
			"from": [ 13, 4.625, 3.25 ],
            "to": [ 16, 6.75, 8 ],
            "faces": {
                "up":    { "uv": [ 13, 3.25, 16, 8 ], "texture": "#top" },
                "west": { "uv": [ 3.25, 9.25, 8, 11.375 ], "texture": "#side" },
                "east": { "uv": [ 8, 9.25, 12.75, 11.375 ], "texture": "#side", "cullface": "east" },
                "north":  { "uv": [ 0, 9.25, 3, 11.375 ], "texture": "#side" }
            }
        },
		{  "__comment": "Layer3 Plate2",
			"from": [ 7.75, 4.625, 3.75 ],
            "to": [ 13, 6.75, 8 ],
            "faces": {
                "up":    { "uv": [ 7.75, 3.75, 13, 8 ], "texture": "#top" },
                "north":  { "uv": [ 3, 9.25, 8.25, 11.375 ], "texture": "#side" }
            }
        },
		{  "__comment": "Layer3 Plate3",
			"from": [ 3.75, 4.625, 2.75 ],
            "to": [ 7.75, 6.75, 8.25 ],
            "faces": {
                "up":    { "uv": [ 3.75, 2.75, 7.75, 8.25 ], "texture": "#top" },
                "west":  { "uv": [ 2.75, 9.25, 8.25, 11.375 ], "texture": "#side" },
                "east":  { "uv": [ 7.75, 9.25, 13.25, 11.375 ], "texture": "#side" },
                "north":  { "uv": [ 8.25, 9.25, 12.25, 11.375 ], "texture": "#side" }
            }
        },
		{  "__comment": "Layer3 Plate4",
			"from": [ 2.75, 4.625, 8.25 ],
            "to": [ 8, 6.75, 12.75 ],
            "faces": {
                "up":    { "uv": [ 2.75, 8.25, 8, 12.75 ], "texture": "#top" },
                "north": { "uv": [ 8, 9.25, 13.25, 11.375 ], "texture": "#side" },
                "south": { "uv": [ 2.75, 9.25, 8, 11.375 ], "texture": "#side" },
                "west":  { "uv": [ 8.25, 9.25, 12.75, 11.375 ], "texture": "#side" }
            }
        },
		{  "__comment": "Layer3 Plate5",
			"from": [ 3.875, 4.625, 12.75 ],
            "to": [ 8, 6.75, 16 ],
            "faces": {
                "up":    { "uv": [ 3.875, 12.75, 8, 16 ], "texture": "#top" },
                "south": { "uv": [ 3.875, 9.25, 8, 11.375 ], "texture": "#side", "cullface": "south" },
                "west":  { "uv": [ 12.75, 9.25, 16, 11.375 ], "texture": "#side" }
            }
        },
		
		{  "__comment": "Layer4 Plate1",
			"from": [ 13.5, 6.75, 7 ],
            "to": [ 16, 10, 9.125 ],
            "faces": {
                "up":    { "uv": [ 13.5, 7, 16, 9.125 ], "texture": "#top" },
                "north": { "uv": [ 0, 6, 2.5, 9.25 ], "texture": "#side" },
                "east":  { "uv": [ 6.875, 6, 9, 9.25 ], "texture": "#side", "cullface": "east" }
            }
        },
		{  "__comment": "Layer4 Plate2",
			"from": [ 6.875, 6.75, 5.5 ],
            "to": [ 13.5, 10, 9.125 ],
            "faces": {
                "up":    { "uv": [ 6.875, 5.5, 13.5, 9.125 ], "texture": "#top" },
                "north": { "uv": [ 2.5, 6, 9.125, 9.25 ], "texture": "#side" },
                "west":  { "uv": [ 5.5, 6, 9.125, 9.25 ], "texture": "#side" },
                "east":  { "uv": [ 6.875, 6, 10.5, 9.25 ], "texture": "#side", "cullface": "east" }
            }
        },
		{  "__comment": "Layer4 Plate3",
			"from": [ 6, 6.75, 9.125 ],
            "to": [ 16, 10, 14.75 ],
            "faces": {
                "up":    { "uv": [ 6, 9.125, 16, 14.75 ], "texture": "#top" },
                "north": { "uv": [ 0, 6, 10, 9.25 ], "texture": "#side" },
                "south": { "uv": [ 6, 6, 16, 9.25 ], "texture": "#side" },
                "west":  { "uv": [ 9.125, 6, 14.75, 9.25 ], "texture": "#side" },
                "east":  { "uv": [ 1.25, 6, 6.875, 9.25 ], "texture": "#side", "cullface": "east" }
            }
        },
		{  "__comment": "Layer4 Plate4",
			"from": [ 7, 6.75, 14.75 ],
            "to": [ 16, 10, 16 ],
            "faces": {
                "up":    { "uv": [ 7, 14.75, 16, 16 ], "texture": "#top" },
                "south": { "uv": [ 7, 6, 16, 9.25 ], "texture": "#side", "cullface": "south" },
                "west":  { "uv": [ 14.75, 6, 16, 9.25 ], "texture": "#side" },
                "east":  { "uv": [ 0, 6, 1.25, 9.25 ], "texture": "#side", "cullface": "east" }
            }
        },
		
		{  "__comment": "Layer5 Plate1",
			"from": [ 10.625, 10, 10.625 ],
            "to": [ 16, 14.25, 16 ],
            "faces": {
                "up":    { "uv": [ 10.625, 10.625, 16, 16 ], "texture": "#top" },
                "north": { "uv": [ 0, 1.75, 5.375, 6 ], "texture": "#side" },
                "south": { "uv": [ 10.625, 1.75, 16, 6 ], "texture": "#side", "cullface": "south" },
                "west":  { "uv": [ 10.625, 1.75, 16, 6 ], "texture": "#side" },
                "east":  { "uv": [ 0, 1.75, 5.375, 6 ], "texture": "#side", "cullface": "east" }
            }
        },
		
		{  "__comment": "Layer6 Plate1",
			"from": [ 12.5, 14.25, 12.625 ],
            "to": [ 16, 16, 16 ],
            "faces": {
                "up":    { "uv": [ 12.5, 12.625, 16, 16 ], "texture": "#top", "cullface": "up" },
                "north": { "uv": [ 0, 0, 3.5, 1.75 ], "texture": "#side" },
                "south": { "uv": [ 12.5, 0, 16, 1.75 ], "texture": "#side", "cullface": "south" },
                "west":  { "uv": [ 12.625, 0, 16, 1.75 ], "texture": "#side" },
                "east":  { "uv": [ 0, 0, 3.375, 1.75 ], "texture": "#side", "cullface": "east" }
            }
        }
    ]
}
