{
    "parent": "block/door_top_rh",
    "textures": {
        "bottom": "blocks/door_spruce_lower",
        "top": "blocks/door_spruce_upper",
		"top_side": "blocks/door_spruce_upper_side",
		"up": "blocks/door_spruce_top"
    }
}
