{
    "parent": "block/block",
	"textures": {
        "all": "blocks/stonebrick_carved",
		"particle": "blocks/stonebrick_carved"
    },
    "elements": [
        {   "from": [ 0, 0, 0 ],
            "to": [ 3, 16, 3 ],
            "faces": {
                "north": { "uv": [  13,  0,  16, 16 ], "texture": "#all", "cullface": "north" },
                "south": { "uv": [ 0,  0, 3, 16 ], "texture": "#all", "cullface": "west" },
                "west":  { "uv": [ 0,  0, 3, 16 ], "texture": "#all", "cullface": "west" },
                "east":  { "uv": [  13,  0,  16, 16 ], "texture": "#all", "cullface": "north" },
                "up":  { "uv": [  0,  0,  3, 3 ], "texture": "#all", "cullface": "up" },
                "down":  { "uv": [  0,  13,  3, 16 ], "texture": "#all", "cullface": "down" }
            }
        },
		{   "from": [ 13, 0, 0 ],
            "to": [ 16, 16, 3 ],
            "faces": {
                "north": { "uv": [  0,  0,  3, 16 ], "texture": "#all", "cullface": "north" },
                "south": { "uv": [ 13,  0, 16, 16 ], "texture": "#all", "cullface": "east" },
                "west":  { "uv": [ 0,  0, 3, 16 ], "texture": "#all", "cullface": "north" },
                "east":  { "uv": [  13,  0,  16, 16 ], "texture": "#all", "cullface": "east" },
                "up":  { "uv": [  13,  0,  16, 3 ], "texture": "#all", "cullface": "up" },
                "down":  { "uv": [  13,  13,  16, 16 ], "texture": "#all", "cullface": "down" }
            }
        },
		{   "from": [ 0, 0, 13 ],
            "to": [ 3, 16, 16 ],
            "faces": {
                "north": { "uv": [  13,  0,  16, 16 ], "texture": "#all", "cullface": "west" },
                "south": { "uv": [ 0,  0, 3, 16 ], "texture": "#all", "cullface": "south" },
                "west":  { "uv": [ 13,  0, 16, 16 ], "texture": "#all", "cullface": "west" },
                "east":  { "uv": [  0,  0,  3, 16 ], "texture": "#all", "cullface": "south" },
                "up":  { "uv": [  0,  13,  3, 16 ], "texture": "#all", "cullface": "up" },
                "down":  { "uv": [  0,  0,  3, 3 ], "texture": "#all", "cullface": "down" }
            }
        },
		{   "from": [ 13, 0, 13 ],
            "to": [ 16, 16, 16 ],
            "faces": {
                "north": { "uv": [  0,  0,  3, 16 ], "texture": "#all", "cullface": "east" },
                "south": { "uv": [ 13,  0, 16, 16 ], "texture": "#all", "cullface": "south" },
                "west":  { "uv": [ 13,  0, 16, 16 ], "texture": "#all", "cullface": "south" },
                "east":  { "uv": [  0,  0,  3, 16 ], "texture": "#all", "cullface": "east" },
                "up":  { "uv": [  13,  13,  16, 16 ], "texture": "#all", "cullface": "up" },
                "down":  { "uv": [  13,  0,  16, 3 ], "texture": "#all", "cullface": "down" }
            }
        },
		{   "from": [ 0, 0, 3 ],
            "to": [ 3, 3, 13 ],
            "faces": {
                "west":  { "uv": [ 3,  13, 13, 16 ], "texture": "#all", "cullface": "west" },
                "east":  { "uv": [ 3,  13, 13, 16 ], "texture": "#all", "cullface": "down" },
                "up":  { "uv": [  0,  3,  3, 13 ], "texture": "#all", "cullface": "west" },
                "down":  { "uv": [  0,  3,  3, 13 ], "texture": "#all", "cullface": "down" }
            }
        },
		{   "from": [ 0, 13, 3 ],
            "to": [ 3, 16, 13 ],
            "faces": {
                "west":  { "uv": [ 3,  0, 13, 3 ], "texture": "#all", "cullface": "west" },
                "east":  { "uv": [ 3,  0, 13, 3 ], "texture": "#all", "cullface": "up" },
                "up":  { "uv": [  0,  3,  3, 13 ], "texture": "#all", "cullface": "up" },
                "down":  { "uv": [  0,  3,  3, 13 ], "texture": "#all", "cullface": "west" }
            }
        },
		{   "from": [ 3, 0, 0 ],
            "to": [ 13, 3, 3 ],
            "faces": {
                "north":  { "uv": [ 3,  13, 13, 16 ], "texture": "#all", "cullface": "north" },
                "south":  { "uv": [ 3,  13, 13, 16 ], "texture": "#all", "cullface": "down" },
                "up":  { "uv": [  3,  0,  13, 3 ], "texture": "#all", "cullface": "north" },
                "down":  { "uv": [  3,  13,  13, 16 ], "texture": "#all", "cullface": "down" }
            }
        },
		{   "from": [ 3, 13, 0 ],
            "to": [ 13, 16, 3 ],
            "faces": {
                "north":  { "uv": [ 3,  0, 13, 3 ], "texture": "#all", "cullface": "north" },
                "south":  { "uv": [ 3,  0, 13, 3 ], "texture": "#all", "cullface": "up" },
                "up":  { "uv": [  3,  0,  13, 3 ], "texture": "#all", "cullface": "up" },
                "down":  { "uv": [  3,  13,  13, 16 ], "texture": "#all", "cullface": "north" }
            }
        },
		{   "from": [ 13, 0, 3 ],
            "to": [ 16, 3, 13 ],
            "faces": {
                "west":  { "uv": [ 3,  13, 13, 16 ], "texture": "#all", "cullface": "down" },
                "east":  { "uv": [ 3,  13, 13, 16 ], "texture": "#all", "cullface": "east" },
                "up":  { "uv": [  13,  3,  16, 13 ], "texture": "#all", "cullface": "east" },
                "down":  { "uv": [  13,  3,  16, 13 ], "texture": "#all", "cullface": "down" }
            }
        },
		{   "from": [ 13, 13, 3 ],
            "to": [ 16, 16, 13 ],
            "faces": {
                "west":  { "uv": [ 3,  0, 13, 3 ], "texture": "#all", "cullface": "up" },
                "east":  { "uv": [ 3,  0, 13, 3 ], "texture": "#all", "cullface": "east" },
                "up":  { "uv": [  13,  3,  16, 13 ], "texture": "#all", "cullface": "up" },
                "down":  { "uv": [  13,  3,  16, 13 ], "texture": "#all", "cullface": "east" }
            }
        },
		{   "from": [ 3, 0, 13 ],
            "to": [ 13, 3, 16 ],
            "faces": {
                "north":  { "uv": [ 3,  13, 13, 16 ], "texture": "#all", "cullface": "down" },
                "south":  { "uv": [ 3,  13, 13, 16 ], "texture": "#all", "cullface": "south" },
                "up":  { "uv": [  3,  13,  13, 16 ], "texture": "#all", "cullface": "south" },
                "down":  { "uv": [  3,  0,  13, 3 ], "texture": "#all", "cullface": "down" }
            }
        },
		{   "from": [ 3, 13, 13 ],
            "to": [ 13, 16, 16 ],
            "faces": {
                "north":  { "uv": [ 3,  0, 13, 3 ], "texture": "#all", "cullface": "up" },
                "south":  { "uv": [ 3,  0, 13, 3 ], "texture": "#all", "cullface": "south" },
                "up":  { "uv": [  3,  13,  13, 16 ], "texture": "#all", "cullface": "up" },
                "down":  { "uv": [  3,  0,  13, 3 ], "texture": "#all", "cullface": "south" }
            }
        },
		{   "from": [ 1.5, 1.5, 1.5 ],
            "to": [ 14.5, 14.5, 14.5 ],
            "faces": {
                "north":  { "uv": [ 1.5,  1.5, 14.5, 14.5 ], "texture": "#all", "cullface": "north" },
                "south":  { "uv": [ 1.5,  1.5, 14.5, 14.5 ], "texture": "#all", "cullface": "south" },
                "west":  { "uv": [ 1.5,  1.5, 14.5, 14.5 ], "texture": "#all", "cullface": "west" },
                "east":  { "uv": [ 1.5,  1.5, 14.5, 14.5 ], "texture": "#all", "cullface": "east" },
                "up":  { "uv": [  1.5,  1.5,  14.5, 14.5 ], "texture": "#all", "cullface": "up" },
                "down":  { "uv": [  1.5,  1.5,  14.5, 14.5 ], "texture": "#all", "cullface": "down" }
            }
        },
		
		{   "from": [ 6, 6, 1 ],
            "to": [ 10, 10, 1.5 ],
            "faces": {
                "north":  { "uv": [ 6,  6, 10, 10 ], "texture": "#all", "cullface": "north" },
                "east":  { "uv": [ 6,  6, 6.5, 10 ], "texture": "#all", "cullface": "north" },
                "west":  { "uv": [ 9.5,  6, 10, 10 ], "texture": "#all", "cullface": "north" },
                "down":  { "uv": [  6,  9.5,  10, 10 ], "texture": "#all", "cullface": "north" },
                "up":  { "uv": [  6,  6,  10, 6.5 ], "texture": "#all", "cullface": "north" }
            }
        },
		{   "from": [ 6, 6, 14.5 ],
            "to": [ 10, 10, 15 ],
            "faces": {
                "south":  { "uv": [ 6,  6, 10, 10 ], "texture": "#all", "cullface": "south" },
                "west":  { "uv": [ 6,  6, 6.5, 10 ], "texture": "#all", "cullface": "south" },
                "east":  { "uv": [ 9.5,  6, 10, 10 ], "texture": "#all", "cullface": "south" },
                "down":  { "uv": [  6,  9.5,  10, 10 ], "texture": "#all", "cullface": "south" },
                "up":  { "uv": [  6,  6,  10, 6.5 ], "texture": "#all", "cullface": "south" }
            }
        },
		
		{   "from": [ 1, 6, 6 ],
            "to": [ 1.5, 10, 10 ],
            "faces": {
                "west":  { "uv": [ 6,  6, 10, 10 ], "texture": "#all", "cullface": "west" },
                "north":  { "uv": [ 6,  6, 6.5, 10 ], "texture": "#all", "cullface": "west" },
                "south":  { "uv": [ 9.5,  6, 10, 10 ], "texture": "#all", "cullface": "west" },
                "down":  { "uv": [  6,  9.5,  10, 10 ], "texture": "#all", "cullface": "west", "rotation": 90 },
                "up":  { "uv": [  6,  6,  10, 6.5 ], "texture": "#all", "cullface": "west", "rotation": 90 }
            }
        },
		{   "from": [ 14.5, 6, 6 ],
            "to": [ 15, 10, 10 ],
            "faces": {
                "east":  { "uv": [ 6,  6, 10, 10 ], "texture": "#all", "cullface": "east" },
                "south":  { "uv": [ 6,  6, 6.5, 10 ], "texture": "#all", "cullface": "east" },
                "north":  { "uv": [ 9.5,  6, 10, 10 ], "texture": "#all", "cullface": "east" },
                "down":  { "uv": [  6,  9.5,  10, 10 ], "texture": "#all", "cullface": "east", "rotation": 270 },
                "up":  { "uv": [  6,  6,  10, 6.5 ], "texture": "#all", "cullface": "east", "rotation": 270 }
            }
        }
    ]
}
