{
    "textures": {
        "particle": "#texture"
    },
    "elements": [
        {   "from": [ 0, 0, 13 ],
            "to": [ 16, 16, 16 ],
            "faces": {
                "down":  { "uv": [  0, 0, 16, 3 ], "texture": "#side", "cullface": "down" },
                "up":    { "uv": [  0, 0, 16, 3 ], "texture": "#side", "cullface": "up" },
                "north": { "uv": [  0,  0, 16, 16 ], "texture": "#texture", "rotation": 270 },
                "south": { "uv": [  0,  0, 16, 16 ], "texture": "#texture", "cullface": "south" },
                "west":  { "uv": [ 0,  0, 16, 3 ], "texture": "#side", "cullface": "west", "rotation": 90 },
                "east":  { "uv": [ 0,  0, 16, 3 ], "texture": "#side", "cullface": "east", "rotation": 90 }
            }
        },
		
		
		{   "from": [ 3, 13, 13 ],
            "to": [ 6, 13, 16 ],
            "faces": {
                "down": { "uv": [ 3, 0, 6, 3 ], "texture": "#side" }
            }
        },
		{   "from": [ 10, 13, 13 ],
            "to": [ 13, 13, 16 ],
            "faces": {
                "down": { "uv": [ 10, 0, 13, 3 ], "texture": "#side" }
            }
        },
		
		{   "from": [ 3, 10, 13 ],
            "to": [ 6, 10, 16 ],
            "faces": {
                "up": { "uv": [ 10, 0, 13, 3 ], "texture": "#side" }
            }
        },
		{   "from": [ 10, 10, 13 ],
            "to": [ 13, 10, 16 ],
            "faces": {
                "up": { "uv": [ 3, 0, 6, 3 ], "texture": "#side" }
            }
        },
		
		{   "from": [ 3, 10, 13 ],
            "to": [ 3, 13, 16 ],
            "faces": {
                "east": { "uv": [ 0, 3, 3, 6 ], "texture": "#side_v" }
            }
        },
		{   "from": [ 10, 10, 13 ],
            "to": [ 10, 13, 16 ],
            "faces": {
                "east": { "uv": [ 0, 3, 3, 6 ], "texture": "#side_v" }
            }
        },
		
		{   "from": [ 6, 10, 13 ],
            "to": [ 6, 13, 16 ],
            "faces": {
                "west": { "uv": [ 0, 3, 3, 6 ], "texture": "#side_v" }
            }
        },
		{   "from": [ 13, 10, 13 ],
            "to": [ 13, 13, 16 ],
            "faces": {
                "west": { "uv": [ 0, 3, 3, 6 ], "texture": "#side_v" }
            }
        },
		
		
		{   "from": [ 3, 6, 13 ],
            "to": [ 6, 6, 16 ],
            "faces": {
                "down": { "uv": [ 3, 0, 6, 3 ], "texture": "#side" }
            }
        },
		{   "from": [ 10, 6, 13 ],
            "to": [ 13, 6, 16 ],
            "faces": {
                "down": { "uv": [ 10, 0, 13, 3 ], "texture": "#side" }
            }
        },
		
		{   "from": [ 3, 3, 13 ],
            "to": [ 6, 3, 16 ],
            "faces": {
                "up": { "uv": [ 10, 0, 13, 3 ], "texture": "#side" }
            }
        },
		{   "from": [ 10, 3, 13 ],
            "to": [ 13, 3, 16 ],
            "faces": {
                "up": { "uv": [ 3, 0, 6, 3 ], "texture": "#side" }
            }
        },
		
		{   "from": [ 3, 3, 13 ],
            "to": [ 3, 6, 16 ],
            "faces": {
                "east": { "uv": [ 0, 10, 3, 13 ], "texture": "#side_v" }
            }
        },
		{   "from": [ 10, 3, 13 ],
            "to": [ 10, 6, 16 ],
            "faces": {
                "east": { "uv": [ 0, 10, 3, 13 ], "texture": "#side_v" }
            }
        },
		
		{   "from": [ 6, 3, 13 ],
            "to": [ 6, 6, 16 ],
            "faces": {
                "west": { "uv": [ 0, 10, 3, 13 ], "texture": "#side_v" }
            }
        },
		{   "from": [ 13, 3, 13 ],
            "to": [ 13, 6, 16 ],
            "faces": {
                "west": { "uv": [ 0, 10, 3, 13 ], "texture": "#side_v" }
            }
        }
    ]
}
