{
    "textures": {
        "particle": "#texture"
    },
    "elements": [
        {   "from": [ 0, 13, 0 ],
            "to": [ 16, 16, 16 ],
            "faces": {
                "down":  { "uv": [ 0,  0, 16, 16 ], "texture": "#texture", "cullface": "down" },
                "up":    { "uv": [ 0,  0, 16, 16 ], "texture": "#texture", "rotation": 90 },
                "north": { "uv": [ 0, 0, 16, 3 ], "texture": "#side", "rotation": 180, "cullface": "north" },
                "south": { "uv": [ 0, 0, 16, 3 ], "texture": "#side", "rotation": 180, "cullface": "south" },
                "west":  { "uv": [ 0, 0, 16, 3 ], "texture": "#side", "rotation": 180, "cullface": "west" },
                "east":  { "uv": [ 0, 0, 16, 3 ], "texture": "#side", "rotation": 180, "cullface": "east" }
            }
        },
		
		
		{   "from": [ 3, 13, 3 ],
            "to": [ 6, 16, 3 ],
            "faces": {
                "south": { "uv": [ 3, 0, 6, 3 ], "texture": "#side" }
            }
        },
		{   "from": [ 10, 13, 3 ],
            "to": [ 13, 16, 3 ],
            "faces": {
                "south": { "uv": [ 10, 0, 13, 3 ], "texture": "#side" }
            }
        },
		
		{   "from": [ 3, 13, 6 ],
            "to": [ 6, 16, 6 ],
            "faces": {
                "north": { "uv": [ 10, 0, 13, 3 ], "texture": "#side" }
            }
        },
		{   "from": [ 10, 13, 6 ],
            "to": [ 13, 16, 6 ],
            "faces": {
                "north": { "uv": [ 3, 0, 6, 3 ], "texture": "#side" }
            }
        },
		
		{   "from": [ 3, 13, 3 ],
            "to": [ 3, 16, 6 ],
            "faces": {
                "east": { "uv": [ 10, 0, 13, 3 ], "texture": "#side" }
            }
        },
		{   "from": [ 10, 13, 3 ],
            "to": [ 10, 16, 6 ],
            "faces": {
                "east": { "uv": [ 10, 0, 13, 3 ], "texture": "#side" }
            }
        },
		
		{   "from": [ 6, 13, 3 ],
            "to": [ 6, 16, 6 ],
            "faces": {
                "west": { "uv": [ 3, 0, 6, 3 ], "texture": "#side" }
            }
        },
		{   "from": [ 13, 13, 3 ],
            "to": [ 13, 16, 6 ],
            "faces": {
                "west": { "uv": [ 3, 0, 6, 3 ], "texture": "#side" }
            }
        },
		
		
		{   "from": [ 3, 13, 10 ],
            "to": [ 6, 16, 10 ],
            "faces": {
                "south": { "uv": [ 3, 0, 6, 3 ], "texture": "#side" }
            }
        },
		{   "from": [ 10, 13, 10 ],
            "to": [ 13, 16, 10 ],
            "faces": {
                "south": { "uv": [ 10, 0, 13, 3 ], "texture": "#side" }
            }
        },
		
		{   "from": [ 3, 13, 13 ],
            "to": [ 6, 16, 13 ],
            "faces": {
                "north": { "uv": [ 10, 0, 13, 3 ], "texture": "#side" }
            }
        },
		{   "from": [ 10, 13, 13 ],
            "to": [ 13, 16, 13 ],
            "faces": {
                "north": { "uv": [ 3, 0, 6, 3 ], "texture": "#side" }
            }
        },
		
		{   "from": [ 3, 13, 10 ],
            "to": [ 3, 16, 13 ],
            "faces": {
                "east": { "uv": [ 3, 0, 6, 3 ], "texture": "#side" }
            }
        },
		{   "from": [ 10, 13, 10 ],
            "to": [ 10, 16, 13 ],
            "faces": {
                "east": { "uv": [ 3, 0, 6, 3 ], "texture": "#side" }
            }
        },
		
		{   "from": [ 6, 13, 10 ],
            "to": [ 6, 16, 13 ],
            "faces": {
                "west": { "uv": [ 10, 0, 13, 3 ], "texture": "#side" }
            }
        },
		{   "from": [ 13, 13, 10 ],
            "to": [ 13, 16, 13 ],
            "faces": {
                "west": { "uv": [ 10, 0, 13, 3 ], "texture": "#side" }
            }
        }
    ]
}
