{
	"parent": "block/block",
	"textures": {
        "bottom": "blocks/door_wood_lower",
        "top": "blocks/door_wood_upper",
		"top_side": "blocks/door_wood_upper_side",
		"up": "blocks/door_wood_top",
		"particle": "blocks/door_wood_upper"
    },
	"elements": [
        {   "from": [ 0, 0, 0 ],
            "to": [ 3, 16, 16 ],
            "faces": {
                "down":  { "uv": [ 0, 0, 16, 3 ], "texture": "#up", "rotation": 90, "cullface": "down" },
                "up":    { "uv": [ 0, 0, 16, 3 ], "texture": "#up", "rotation": 90, "cullface": "up" },
                "north": { "uv": [  0, 0,  3, 16 ], "texture": "#top_side", "cullface": "north" },
                "south": { "uv": [  0, 0,  3, 16 ], "texture": "#top_side", "cullface": "south" },
                "west":  { "uv": [  0, 0, 16, 16 ], "texture": "#top", "cullface": "west" },
                "east":  { "uv": [ 16, 0,  0, 16 ], "texture": "#top" }
            }
        },
		{   "from": [ 0, 6.75, 5.25 ],
            "to": [ 3, 12.125, 5.25 ],
            "faces": {
                "south": { "uv": [  0, 3.875,  3, 9.25 ], "texture": "#top_side" }
            }
        },
		{   "from": [ 0, 6.75, 10.625 ],
            "to": [ 3, 12.125, 10.625 ],
            "faces": {
                "north": { "uv": [  0, 3.875,  3, 9.25 ], "texture": "#top_side" }
            }
        },
		{   "from": [ 0, 6.75, 5.25 ],
            "to": [ 3, 6.75, 10.625 ],
            "faces": {
                "up":    { "uv": [ 5.25, 0, 10.625, 3 ], "texture": "#up", "rotation": 90 }
            }
        },
		{   "from": [ 0, 12.125, 5.25 ],
            "to": [ 3, 12.125, 10.625 ],
            "faces": {
                "down":    { "uv": [ 5.25, 0, 10.625, 3 ], "texture": "#up", "rotation": 90 }
            }
        }
    ]
}
