{
    "parent": "block/stairs_stone",
    "textures": {
        "bottom": "blocks/ctm/cobblestone/cobblestone4",
        "top": "blocks/ctm/cobblestone/cobblestone4",
        "side": "blocks/ctm/cobblestone/cobblestone4"
    }
}
