{
    "parent": "block/upper_slab",
    "textures": {
        "bottom": "blocks/ctm/cobblestone/cobblestone7",
        "top": "blocks/ctm/cobblestone/cobblestone7",
        "side": "blocks/ctm/cobblestone/cobblestone7"
    }
}
