{
	"animation": {
		"frames": [
			{
			"index": 1,
			"time": 61
			},
			{
			"index": 0,
			"time": 1
			},
			{
			"index": 1,
			"time": 3
			},
			{
			"index": 0,
			"time": 1
			},
			{
			"index": 1,
			"time": 1
			}
		]
	}
}