{
    "parent": "block/half_slab",
    "textures": {
        "bottom": "blocks/ctm/cobblestone/cobblestone3",
        "top": "blocks/ctm/cobblestone/cobblestone3",
        "side": "blocks/ctm/cobblestone/cobblestone3"
    }
}
