{
    "parent": "block/half_slab",
    "textures": {
        "bottom": "blocks/ctm/cobblestone/cobblestone5",
        "top": "blocks/ctm/cobblestone/cobblestone5",
        "side": "blocks/ctm/cobblestone/cobblestone5"
    }
}
