{
    "parent": "block/block",
    "textures": {
        "all": "blocks/stone",
		"particle": "blocks/stone"
    },
    "elements": [
        {   "from": [ 2, 16, 3 ],
            "to": [ 4, 17.5, 5 ],
			"rotation": { "origin": [ 3, 8, 4 ], "axis": "y", "angle": 22.5, "rescale": false },
			"shade": false,
            "faces": {
                "down":  { "texture": "#all", "cullface": "up" },
                "up":    { "texture": "#all", "cullface": "up" },
                "north": { "uv": [ 12, 14.5, 14, 16 ], "texture": "#all", "cullface": "up" },
                "south": { "uv": [ 2, 14.5, 4, 16 ], "texture": "#all", "cullface": "up" },
                "west":  { "uv": [ 3, 14.5, 5, 16 ], "texture": "#all", "cullface": "up" },
                "east":  { "uv": [ 11, 14.5, 13, 16 ], "texture": "#all", "cullface": "up" }
            }
        },
		{   "from": [ 3, 16, 4 ],
            "to": [ 4.5, 18.5, 6 ],
			"rotation": { "origin": [ 3.75, 8, 5 ], "axis": "y", "angle": -22.5, "rescale": false },
			"shade": false,
            "faces": {
                "down":  { "texture": "#all", "cullface": "up" },
                "up":    { "texture": "#all", "cullface": "up" },
                "north": { "uv": [ 11.5, 13.5, 13, 16 ], "texture": "#all", "cullface": "up" },
                "south": { "uv": [ 3, 13.5, 4.5, 16 ], "texture": "#all", "cullface": "up" },
                "west":  { "uv": [ 4, 13.5, 6, 16 ], "texture": "#all", "cullface": "up" },
                "east":  { "uv": [ 10, 13.5, 12, 16 ], "texture": "#all", "cullface": "up" }
            }
        },
		
		{   "from": [ 4, 16, 3.5 ],
            "to": [ 5.5, 18.5, 5.5 ],
			"rotation": { "origin": [ 4.75, 16.5, 4.5 ], "axis": "z", "angle": -22.5, "rescale": false },
			"shade": false,
            "faces": {
                "down":  { "texture": "#all", "cullface": "up" },
                "up":    { "texture": "#all", "cullface": "up" },
                "north": { "uv": [ 11.5, 13.5, 13, 16 ], "texture": "#all", "cullface": "up" },
                "south": { "uv": [ 3, 13.5, 4.5, 16 ], "texture": "#all", "cullface": "up" },
                "west":  { "uv": [ 4, 13.5, 6, 16 ], "texture": "#all", "cullface": "up" },
                "east":  { "uv": [ 10, 13.5, 12, 16 ], "texture": "#all", "cullface": "up" }
            }
        },
		{   "from": [ 3, 16, 4.5 ],
            "to": [ 6, 17.5, 7 ],
			"rotation": { "origin": [ 4.5, 16.5, 5.75 ], "axis": "x", "angle": 22.5, "rescale": false },
			"shade": false,
            "faces": {
                "down":  { "texture": "#all", "cullface": "up" },
                "up":    { "texture": "#all", "cullface": "up" },
                "north": { "uv": [ 11.5, 13.5, 13, 16 ], "texture": "#all", "cullface": "up" },
                "south": { "uv": [ 3, 13.5, 4.5, 16 ], "texture": "#all", "cullface": "up" },
                "west":  { "uv": [ 4, 13.5, 6, 16 ], "texture": "#all", "cullface": "up" },
                "east":  { "uv": [ 10, 13.5, 12, 16 ], "texture": "#all", "cullface": "up" }
            }
        }
    ]
}
