{
    "parent": "block/cube",
    "textures": {
        "north": "blocks/ctm/stone/stone18",
        "east": "blocks/ctm/stone/stone19",
        "south": "blocks/ctm/stone/stone20",
        "west": "blocks/ctm/stone/stone21",
        "up": "blocks/ctm/stone/stone22",
        "down": "blocks/ctm/stone/stone23",
		"particle": "blocks/stone"
    }
}