{
    "parent": "block/cube",
    "textures": {
        "north": "blocks/ctm/stone/stone6",
        "east": "blocks/ctm/stone/stone7",
        "south": "blocks/ctm/stone/stone8",
        "west": "blocks/ctm/stone/stone9",
        "up": "blocks/ctm/stone/stone10",
        "down": "blocks/ctm/stone/stone11",
		"particle": "blocks/stone"
    }
}
