{
    "parent": "block/stairs",
    "textures": {
        "bottom": "blocks/ctm/stonebrick/stonebrick1",
        "top": "blocks/ctm/stonebrick/stonebrick1",
        "side": "blocks/ctm/stonebrick/stonebrick1"
    }
}
