{
    "parent": "block/stairs",
    "textures": {
        "bottom": "blocks/ctm/stonebrick/stonebrick2",
        "top": "blocks/ctm/stonebrick/stonebrick2",
        "side": "blocks/ctm/stonebrick/stonebrick2"
    }
}
