{
    "parent": "block/block",
	"textures": {
        "wood": "blocks/planks_oak",
		"particle": "blocks/bookshelf",
		"dark": "blocks/bookshelf_shadow",
		"books0": "blocks/books/books0",
		"books1": "blocks/books/books1",
		"books2": "blocks/books/books2",
		"books3": "blocks/books/books3",
		"books4": "blocks/books/books4",
		"books5": "blocks/books/books5",
		"books6": "blocks/books/books6",
		"books7": "blocks/books/books7",
		"books8": "blocks/books/books8",
		"books9": "blocks/books/books9",
		"books10": "blocks/books/books10",
		"books11": "blocks/books/books11"
    },
	"elements": [
        
		{   "__comment": "Book5 Bottom North",
			"from": [ 7.125, 0.5, 0.3 ],
            "to": [ 9.125, 7.125, 4.425 ],
            "faces": {
                "up":    { "uv": [ 14, 8, 16, 16 ], "texture": "#books8", "cullface": "north" },
                "east": { "uv": [ 0, 0, 4.125, 6.625 ], "texture": "#books8", "cullface": "north" },
                "north":  { "uv": [ 4.125, 0, 6.125, 6.625 ], "texture": "#books8", "cullface": "north" },
                "west": { "uv": [ 6.125, 0, 10.25, 6.625 ], "texture": "#books8", "cullface": "north" }
            }
        },
		{   "__comment": "Book6 Bottom North",
			"from": [ 6.125, 0.5, 0.5 ],
            "to": [ 7, 6.875, 4.875 ],
            "faces": {
                "up":    { "uv": [ 14, 8, 16, 16 ], "texture": "#books8", "cullface": "north" },
                "east": { "uv": [ 0, 7, 4.375, 13.375 ], "texture": "#books8", "cullface": "north" },
                "north":  { "uv": [ 4.375, 7, 5.25, 13.375 ], "texture": "#books8", "cullface": "north" },
                "west": { "uv": [ 5.25, 7, 9.75, 13.375 ], "texture": "#books8", "cullface": "north" }
            }
        }
    ]
}