{
    "parent": "item/door",
	"textures": {
        "bottom": "blocks/door_acacia_lower",
        "top": "blocks/door_acacia_upper",
		"bottom_side": "blocks/door_acacia_lower_side",
		"up": "blocks/door_acacia_top",
		"top_side": "blocks/door_acacia_upper_side"
    }
}
