{
    "parent": "item/door",
	"textures": {
        "bottom": "blocks/door_birch_lower",
        "top": "blocks/door_birch_upper",
		"bottom_side": "blocks/door_birch_lower_side",
		"up": "blocks/door_birch_top",
		"top_side": "blocks/door_birch_upper_side"
    }
}
