{
    "textures": {
        "book": "items/book_3d"
    },
    "display": {
        "thirdperson_righthand": {
            "rotation": [ 0, 270, 0 ],
            "translation": [ 0, 3, 0 ],
            "scale": [ 0.5, 0.5, 0.5 ]
        },
        "firstperson_righthand": {
            "rotation": [ 0, -180, 0 ],
            "translation": [ 2, 5, 0 ],
            "scale": [ 1, 1, 1 ]
        },
        "gui": {
            "scale": [ 1.3, 1.3, 1.3 ],
			"translation": [ 0, 3, 0 ],
			"rotation": [ 0, 240, 20 ]
        },
        "fixed": {
            "scale": [ 1, 1, 1 ],
			"translation": [ 0, 3, -0.01 ],
			"rotation": [ 0, 90, 0 ]
        },
        "ground": {
            "scale": [ 0.5, 0.5, 0.5 ],
			"translation": [ -1, 0, 0 ],
			"rotation": [ 0, 0, 90 ]
        }
    },
	"elements": [
		{   
            "__comment": "Cover side",
			"from": [ 7, 0, 5 ],
            "to": [ 7, 10, 11 ],
            "faces": {
                "north": { "uv": [ 6, 0, 8, 10 ], "texture": "#book" },
                "west":  { "uv": [ 8,  0,  14, 10 ], "texture": "#book" },
                "east":  { "uv": [ 8,  0,  14, 10 ], "texture": "#book" }
            }
        },
		{   
            "__comment": "Cover side",
			"from": [ 9, 0, 5 ],
            "to": [ 9, 10, 11 ],
            "faces": {
                "north": { "uv": [ 6, 0, 8, 10 ], "texture": "#book" },
                "west":  { "uv": [ 0,  0,  6, 10 ], "texture": "#book" },
                "east":  { "uv": [ 0,  0,  6, 10 ], "texture": "#book" }
            }
        },
		{   
            "__comment": "Cover back",
			"from": [ 7, 0, 5 ],
            "to": [ 9, 10, 5 ],
            "faces": {
                "north": { "uv": [ 6, 0, 8, 10 ], "texture": "#book" },
				"south": { "uv": [ 6, 0, 8, 10 ], "texture": "#book" }
            }
        },
		{   
            "__comment": "Lock",
			"from": [ 7, 4, 11 ],
            "to": [ 9, 6, 11 ],
            "faces": {
                "north": { "uv": [ 0, 12, 2, 14 ], "texture": "#book" },
				"south": { "uv": [ 0, 12, 2, 14 ], "texture": "#book" }
            }
        },
		{   
            "__comment": "Paper",
			"from": [ 7, 1, 5 ],
            "to": [ 9, 9, 10 ],
            "faces": {
                "south": { "uv": [ 14, 0, 16, 8 ], "texture": "#book" },
                "up":  { "uv": [ 0,  10,  5, 12 ], "texture": "#book" },
                "down":  { "uv": [ 0,  10,  5, 12 ], "texture": "#book" }
            }
        },
		{   
            "__comment": "Feather",
			"from": [ 9.5, 0, 6 ],
            "to": [ 9.5, 5, 11 ],
            "faces": {
                "west":  { "uv": [ 11,  10,  16, 15 ], "texture": "#book" },
                "east":  { "uv": [ 11,  10,  16, 15 ], "texture": "#book" }
            }
        }
	]
}
