{
    "parent": "item/handheld",
    "textures": {
        "layer0": "items/diamond_pickaxe"
    },
	"display": {
		"head": {
			"rotation": [ 180, -115, -20 ],
            "translation": [ 4, 12.5, 6 ],
            "scale":[ 1, 1, 1]
		}
	}
}
