{
    "parent": "item/handheld",
    "textures": {
        "layer0": "items/stone_axe"
    },
	"overrides": [
		{
			"predicate": {
				"damaged": 1
			},
			"model": "item/stone_axe_d1"
		},
		{
			"predicate": {
				"damage": 0.25
			},
			"model": "item/stone_axe_d2"
		},
		{
			"predicate": {
				"damage": 0.5
			},
			"model": "item/stone_axe_d3"
		},
		{
			"predicate": {
				"damage": 0.75
			},
			"model": "item/stone_axe_d4"
		}
	]
}
