{
    "textures": {
        "top": "blocks/double_plant_sunflower_top",
		"bottom": "blocks/double_plant_sunflower_bottom",
        "back": "blocks/double_plant_sunflower_back",
        "front": "blocks/double_plant_sunflower_front"
    },
    "display": {
        "thirdperson_righthand": {
            "rotation": [ 0, -135, 0 ],
            "translation": [ 0, 0, 0 ],
            "scale": [ 0.55, 0.55, 0.55 ]
        },
		"thirdperson_lefthand": {
            "rotation": [ 0, 45, 0 ],
            "translation": [ 0, 0, 0 ],
            "scale": [ 0.55, 0.55, 0.55 ]
        },
        "firstperson_righthand": {
            "rotation": [ -25, -135, -15 ],
            "translation": [ 4, -4, 0 ],
            "scale": [ 0.75, 0.75, 0.75 ]
        },
		"firstperson_lefthand": {
            "rotation": [ -25, 45, 15 ],
            "translation": [ 4, -4, 0 ],
            "scale": [ 0.75, 0.75, 0.75 ]
        },
        "gui": {
            "rotation": [ 0, -135, 0 ],
            "scale": [ 0.5, 0.5, 0.5 ],
            "translation": [ 0, -2.5, 0 ]
        },
		"fixed": {
			"scale": [ 0.5, 0.5, 0.5 ],
			"translation": [ 0, -2, 0 ],
			"rotation": [ 0, 90, 0 ]
		},
		"head": {
			"rotation": [ 0, 90, 0 ]
		},
		"ground": {
            "scale": [ 0.75, 0.75, 0.75 ]
        }
    },
    "elements": [
        {   "from": [ 0.8, 16, 8 ],
            "to": [ 15.2, 24, 8 ],
            "rotation": {
                "origin": [ 8, 24, 8 ],
                "axis": "y",
                "angle": 45,
                "rescale": true
            },
            "shade": false,
            "faces": {
                "north": { "uv": [ 0, 8, 16, 16 ], "texture": "#top", "tintindex": 0 },
                "south": { "uv": [ 0, 8, 16, 16 ], "texture": "#top", "tintindex": 0 }
            }
        },
        {   "from": [ 8, 16, 0.8 ],
            "to": [ 8, 24, 15.2 ],
            "rotation": {
                "origin": [ 8, 24, 8 ],
                "axis": "y",
                "angle": 45,
                "rescale": true
            },
            "shade": false,
            "faces": {
                "west": { "uv": [ 0, 8, 16, 16 ], "texture": "#top", "tintindex": 0 },
                "east": { "uv": [ 0, 8, 16, 16 ], "texture": "#top", "tintindex": 0 }
            }
        },
        {   "from": [ 9.6, 15, 1 ],
            "to": [ 9.6, 30, 15 ],
            "rotation": {
                "origin": [ 8, 24, 8 ],
                "axis": "z",
                "angle": 22.5,
                "rescale": false
            },
            "shade": false,
            "faces": {
                "west": { "uv": [ 0, 0, 16, 16 ], "texture": "#back" },
                "east": { "uv": [ 0, 0, 16, 16 ], "texture": "#front" }
            }
        },
		{   "from": [ 0.8, 0, 8 ],
            "to": [ 15.2, 16, 8 ],
            "rotation": { "origin": [ 8, 8, 8 ], "axis": "y", "angle": 45, "rescale": true },
            "shade": false,
            "faces": {
                "north": { "uv": [ 0, 0, 16, 16 ], "texture": "#bottom" },
                "south": { "uv": [ 0, 0, 16, 16 ], "texture": "#bottom" }
            }
        },
        {   "from": [ 8, 0, 0.8 ],
            "to": [ 8, 16, 15.2 ],
            "rotation": { "origin": [ 8, 8, 8 ], "axis": "y", "angle": 45, "rescale": true },
            "shade": false,
            "faces": {
                "west": { "uv": [ 0, 0, 16, 16 ], "texture": "#bottom" },
                "east": { "uv": [ 0, 0, 16, 16 ], "texture": "#bottom" }
            }
        }
    ]
}
