{
    "parent": "block/ctm/tall_grass/tall_grass",
	"ambientocclusion": false,
	"textures": {
        "cross": "blocks/ctm/tallgrass/tallgrass4",
		"particle": "blocks/ctm/tallgrass/tallgrass4"
    }
}
