{
    "ambientocclusion": true,
	"textures": {
        "cross": "blocks/tallgrass",
		"particle": "blocks/tallgrass"
    },
	"elements": [
        {   "from": [ 3, 0, -4 ],
            "to": [ 3, 16, 12 ],
            "rotation": { "origin": [ 3, 8, 4 ], "axis": "y", "angle": -22.5, "rescale": false },
            "shade": false,
            "faces": {
                "west": { "uv": [ 0, 0, 16, 16 ], "texture": "#cross", "tintindex": 0 },
                "east": { "uv": [ 0, 0, 16, 16 ], "texture": "#cross", "tintindex": 0 }
            }
        },
        {   "from": [ 3, 0, 3 ],
            "to": [ 19, 16, 3 ],
            "rotation": { "origin": [ 11, 8, 3 ], "axis": "y", "angle": -45, "rescale": false },
            "shade": false,
            "faces": {
                "north": { "uv": [ 0, 0, 16, 16 ], "texture": "#cross", "tintindex": 0 },
                "south": { "uv": [ 0, 0, 16, 16 ], "texture": "#cross", "tintindex": 0 }
            }
        },
		{   "from": [ 2, 0, 10 ],
            "to": [ 18, 16, 10 ],
            "rotation": { "origin": [ 10, 8, 10 ], "axis": "y", "angle": -22.5, "rescale": false },
            "shade": false,
            "faces": {
                "north": { "uv": [ 0, 0, 16, 16 ], "texture": "#cross", "tintindex": 0 },
                "south": { "uv": [ 0, 0, 16, 16 ], "texture": "#cross", "tintindex": 0 }
            }
        },
        {   "from": [ 8, 0, 5 ],
            "to": [ 8, 16, 21 ],
            "rotation": { "origin": [ 8, 8, 13 ], "axis": "y", "angle": -45, "rescale": false },
            "shade": false,
            "faces": {
                "west": { "uv": [ 0, 0, 16, 16 ], "texture": "#cross", "tintindex": 0 },
                "east": { "uv": [ 0, 0, 16, 16 ], "texture": "#cross", "tintindex": 0 }
            }
        }
    ]
}
