{
    "variants": {
        "axis=y":  [
			{ "model": "acacia_log" },
			{ "model": "acacia_log", "y": 90 },
			{ "model": "acacia_log", "y": 180 },
			{ "model": "acacia_log", "y": 270 }
		],
        "axis=z":   { "model": "acacia_log_side" },
        "axis=x":   { "model": "acacia_log_side", "y": 90 },
        "axis=none": { "model": "acacia_bark" }
    }
}
