{
    "multipart": [
        {
			"apply": { "model": "allium" }
		},
		{ "apply": [
			{ "model": "empty", "weight": 40 },
			{ "model": "butterfly_allium", "weight": 1 },
			{ "model": "butterfly_allium", "y": 90, "weight": 1 },
			{ "model": "butterfly_allium", "y": 180, "weight": 1 },
			{ "model": "butterfly_allium", "y": 270, "weight": 1 }
		]}
    ]
}
