{
    "multipart": [
        {   "when": { "up": "true" },
            "apply": [
					{ "model": "cobblestone_wall_post", "weight": 1 },
					{ "model": "ctm/cobblestone_wall_post/cobblestone_wall_post1", "weight": 1 },
					{ "model": "ctm/cobblestone_wall_post/cobblestone_wall_post2", "weight": 1 },
					{ "model": "ctm/cobblestone_wall_post/cobblestone_wall_post3", "weight": 1 },
					{ "model": "ctm/cobblestone_wall_post/cobblestone_wall_post4", "weight": 1 },
					{ "model": "ctm/cobblestone_wall_post/cobblestone_wall_post5", "weight": 1 },
					{ "model": "ctm/cobblestone_wall_post/cobblestone_wall_post6", "weight": 1 },
					{ "model": "ctm/cobblestone_wall_post/cobblestone_wall_post7", "weight": 1 }
					]
        },
        {   "when": { "north": "true" },
            "apply": [
					{ "model": "cobblestone_wall_side", "uvlock": true, "weight": 1 },
					{ "model": "ctm/cobblestone_wall_side/cobblestone_wall_side1", "uvlock": true, "weight": 1 },
					{ "model": "ctm/cobblestone_wall_side/cobblestone_wall_side2", "uvlock": true, "weight": 1 },
					{ "model": "ctm/cobblestone_wall_side/cobblestone_wall_side3", "uvlock": true, "weight": 1 },
					{ "model": "ctm/cobblestone_wall_side/cobblestone_wall_side4", "uvlock": true, "weight": 1 },
					{ "model": "ctm/cobblestone_wall_side/cobblestone_wall_side5", "uvlock": true, "weight": 1 },
					{ "model": "ctm/cobblestone_wall_side/cobblestone_wall_side6", "uvlock": true, "weight": 1 },
					{ "model": "ctm/cobblestone_wall_side/cobblestone_wall_side7", "uvlock": true, "weight": 1 }
					]
        },
        {   "when": { "east": "true" },
            "apply": [
					{ "model": "cobblestone_wall_side", "y": 90, "uvlock": true, "weight": 1 },
					{ "model": "ctm/cobblestone_wall_side/cobblestone_wall_side1", "y": 90, "uvlock": true, "weight": 1 },
					{ "model": "ctm/cobblestone_wall_side/cobblestone_wall_side2", "y": 90, "uvlock": true, "weight": 1 },
					{ "model": "ctm/cobblestone_wall_side/cobblestone_wall_side3", "y": 90, "uvlock": true, "weight": 1 },
					{ "model": "ctm/cobblestone_wall_side/cobblestone_wall_side4", "y": 90, "uvlock": true, "weight": 1 },
					{ "model": "ctm/cobblestone_wall_side/cobblestone_wall_side5", "y": 90, "uvlock": true, "weight": 1 },
					{ "model": "ctm/cobblestone_wall_side/cobblestone_wall_side6", "y": 90, "uvlock": true, "weight": 1 },
					{ "model": "ctm/cobblestone_wall_side/cobblestone_wall_side7", "y": 90, "uvlock": true, "weight": 1 }
					]
        },
        {   "when": { "south": "true" },
            "apply": [
					{ "model": "cobblestone_wall_side", "y": 180, "uvlock": true, "weight": 1 },
					{ "model": "ctm/cobblestone_wall_side/cobblestone_wall_side1", "y": 180, "uvlock": true, "weight": 1 },
					{ "model": "ctm/cobblestone_wall_side/cobblestone_wall_side2", "y": 180, "uvlock": true, "weight": 1 },
					{ "model": "ctm/cobblestone_wall_side/cobblestone_wall_side3", "y": 180, "uvlock": true, "weight": 1 },
					{ "model": "ctm/cobblestone_wall_side/cobblestone_wall_side4", "y": 180, "uvlock": true, "weight": 1 },
					{ "model": "ctm/cobblestone_wall_side/cobblestone_wall_side5", "y": 180, "uvlock": true, "weight": 1 },
					{ "model": "ctm/cobblestone_wall_side/cobblestone_wall_side6", "y": 180, "uvlock": true, "weight": 1 },
					{ "model": "ctm/cobblestone_wall_side/cobblestone_wall_side7", "y": 180, "uvlock": true, "weight": 1 }
					]
        },
        {   "when": { "west": "true" },
            "apply": [
					{ "model": "cobblestone_wall_side", "y": 270, "uvlock": true, "weight": 1 },
					{ "model": "ctm/cobblestone_wall_side/cobblestone_wall_side1", "y": 270, "uvlock": true, "weight": 1 },
					{ "model": "ctm/cobblestone_wall_side/cobblestone_wall_side2", "y": 270, "uvlock": true, "weight": 1 },
					{ "model": "ctm/cobblestone_wall_side/cobblestone_wall_side3", "y": 270, "uvlock": true, "weight": 1 },
					{ "model": "ctm/cobblestone_wall_side/cobblestone_wall_side4", "y": 270, "uvlock": true, "weight": 1 },
					{ "model": "ctm/cobblestone_wall_side/cobblestone_wall_side5", "y": 270, "uvlock": true, "weight": 1 },
					{ "model": "ctm/cobblestone_wall_side/cobblestone_wall_side6", "y": 270, "uvlock": true, "weight": 1 },
					{ "model": "ctm/cobblestone_wall_side/cobblestone_wall_side7", "y": 270, "uvlock": true, "weight": 1 }
					]
        }
    ]
}
