{
    "variants": {
        "normal": [
			{ "model": "cobblestone" },
			{ "model": "ctm/cobblestone/cobblestone1" },
			{ "model": "ctm/cobblestone/cobblestone2" },
			{ "model": "ctm/cobblestone/cobblestone3" },
			{ "model": "ctm/cobblestone/cobblestone4" },
			{ "model": "ctm/cobblestone/cobblestone5" },
			{ "model": "ctm/cobblestone/cobblestone6" },
			{ "model": "ctm/cobblestone/cobblestone7" }
		]
    }
}
