{
    "variants": {
        "normal": [
			{ "model": "granite" },
			{ "model": "ctm/granite/granite1" },
			{ "model": "ctm/granite/granite2" },
			{ "model": "ctm/granite/granite3" },
			{ "model": "ctm/granite/granite4" },
			{ "model": "ctm/granite/granite5" },
			{ "model": "ctm/granite/granite6" },
			{ "model": "ctm/granite/granite7" },
			{ "model": "ctm/granite/granite8" },
			{ "model": "ctm/granite/granite9" },
			{ "model": "ctm/granite/granite10" },
			{ "model": "ctm/granite/granite11" },
			{ "model": "ctm/granite/granite12" },
			{ "model": "ctm/granite/granite13" },
			{ "model": "ctm/granite/granite14" },
			{ "model": "ctm/granite/granite15" },
			{ "model": "ctm/granite/granite16" },
			{ "model": "ctm/granite/granite17" },
			{ "model": "ctm/granite/granite18" },
			{ "model": "ctm/granite/granite19" },
			{ "model": "ctm/granite/granite20" },
			{ "model": "ctm/granite/granite21" },
			{ "model": "ctm/granite/granite22" },
			{ "model": "ctm/granite/granite23" },
			{ "model": "ctm/granite/granite24" },
			{ "model": "ctm/granite/granite25" }
		]
    }
}
