{
    "multipart": [
        { "when": { "snowy": "false" },
			"apply": [
				{ "model": "ctm/grass/grass_normal", "weight": 1 },
				{ "model": "ctm/grass/grass_normal_root", "weight": 1 },
				{ "model": "ctm/grass/grass_normal1", "weight": 1 },
				{ "model": "ctm/grass/grass_normal_chick", "weight": 1 },
				{ "model": "ctm/grass/grass_normal_chick2", "weight": 1 },
				{ "model": "ctm/grass/grass_normal2", "weight": 1 },
				{ "model": "ctm/grass/grass_normal3", "weight": 1 },
				{ "model": "ctm/grass/grass_normal4", "weight": 1 },
				{ "model": "ctm/grass/grass_normal5", "weight": 1 }
			]
        },
		{ "when": { "snowy": "false" },
			"apply": [
				{ "model": "empty", "weight": 1000 },
				{ "model": "ctm/grass/grass_sticks1", "weight": 1 },
				{ "model": "ctm/grass/grass_sticks1", "y": 90, "weight": 1 },
				{ "model": "ctm/grass/grass_sticks1", "y": 180, "weight": 1 },
				{ "model": "ctm/grass/grass_sticks1", "y": 270, "weight": 1 },
				{ "model": "ctm/grass/grass_stone22", "weight": 1 },
				{ "model": "ctm/grass/grass_stone22", "y": 90, "weight": 1 },
				{ "model": "ctm/grass/grass_stone22", "y": 180, "weight": 1 },
				{ "model": "ctm/grass/grass_stone22", "y": 270, "weight": 1 },
				{ "model": "ctm/grass/grass_stone-22", "weight": 1 },
				{ "model": "ctm/grass/grass_stone-22", "y": 90, "weight": 1 },
				{ "model": "ctm/grass/grass_stone-22", "y": 180, "weight": 1 },
				{ "model": "ctm/grass/grass_stone-22", "y": 270, "weight": 1 },
				{ "model": "ctm/grass/grass_stone45", "weight": 1 },
				{ "model": "ctm/grass/grass_stone-45", "weight": 1 }
			]
        },
        { "when": { "snowy": "true" },
			"apply": [
			{ "model": "grass_snowed", "weight": 30 },
			{ "model": "ctm/grass_snowed/grass_snowed2", "weight": 1 },
			{ "model": "ctm/grass_snowed/grass_snowed2", "weight": 1, "y": 90 },
			{ "model": "ctm/grass_snowed/grass_snowed2", "weight": 1, "y": 180 },
			{ "model": "ctm/grass_snowed/grass_snowed2", "weight": 1, "y": 270 }
			]
		}
    ]
}
