{
    "variants": {
        "normal": [
			{ "model": "ctm/hardened_clay/hardened_clay" },
			{ "model": "ctm/hardened_clay/hardened_clay1" },
			{ "model": "ctm/hardened_clay/hardened_clay2" },
			{ "model": "ctm/hardened_clay/hardened_clay3" },
			{ "model": "ctm/hardened_clay/hardened_clay4" },
			{ "model": "ctm/hardened_clay/hardened_clay5" },
			{ "model": "ctm/hardened_clay/hardened_clay6" },
			{ "model": "ctm/hardened_clay/hardened_clay7" },
			{ "model": "ctm/hardened_clay/hardened_clay8" },
			{ "model": "ctm/hardened_clay/hardened_clay9" }
		]
    }
}
